<svg xmlns="http://www.w3.org/2000/svg" width="2018" height="1415.268" viewBox="0 0 2018 1415.268">
  <g id="Grupo_5" data-name="Grupo 5" transform="translate(-2760 -2556.065)">
    <g id="Grupo_4" data-name="Grupo 4" transform="translate(2760 2556.065)">
      <text id="Luisa" transform="translate(197 836.935)" fill="#707070" font-size="30" font-family="Quicksand-Regular, Quicksand"><tspan x="0" y="0">Luisa</tspan></text>
      <path id="Trazado_7" data-name="Trazado 7" d="M0-3.317s44.167,235.29,409.7,204.749S1060.045-74.293,1462.121-125.481,2018-3.317,2018-3.317v1283.65H0Z" transform="translate(0 134.935)" fill="#f9ae56"/>
      <path id="Trazado_8" data-name="Trazado 8" d="M0-24.143s44.167,198.06,409.7,172.352,650.348-232.1,1052.424-275.186S2018-24.143,2018-24.143V1056.4H0Z" transform="translate(0 274.203)" fill="#f7941f"/>
    </g>
  </g>
</svg>
