<svg xmlns="http://www.w3.org/2000/svg" width="2018" height="400" viewBox="0 0 2018 400">
  <g id="Grupo_7" data-name="Grupo 7" transform="translate(-4715 -3473)">
    <rect id="Rectángulo_17" data-name="Rectángulo 17" width="2018" height="400" transform="translate(4715 3473)" fill="#f9ae56"/>
    <rect id="Rectángulo_18" data-name="Rectángulo 18" width="2018" height="280" transform="translate(4715 3473)" fill="#f7941f"/>
  </g>
</svg>
